Izzy’s Final Project
…
ev_peak <- ev_data %>%
  group_by(County, `Model Year`) %>%
  summarise(EV_Count = n()) %>%
  arrange(desc(EV_Count)) %>%
  slice(1)

## `summarise()` has grouped output by 'County'. You can override using the
## `.groups` argument.

print(ev_peak)

## # A tibble: 39 × 3
## # Groups:   County [39]
##    County   `Model Year` EV_Count
##    <chr>           <dbl>    <int>
##  1 Adams            2023       20
##  2 Asotin           2023       27
##  3 Benton           2023      691
##  4 Chelan           2023      370
##  5 Clallam          2023      334
##  6 Clark            2023     3464
##  7 Columbia         2023        7
##  8 Cowlitz          2023      301
##  9 Douglas          2024      123
## 10 Ferry            2023        8
## # ℹ 29 more rows
…
Which EV make is most popular in Washington?

library(dplyr)

# Replace 'Make' with your actual column name for the car brand
brand_popularity <- ev_data %>%
  group_by(Make) %>%
  summarise(Count = n()) %>%
  arrange(desc(Count))

# View top results
print(brand_popularity)

## # A tibble: 46 × 2
##    Make       Count
##    <chr>      <int>
##  1 TESLA     101423
##  2 CHEVROLET  17438
##  3 NISSAN     15594
##  4 FORD       12819
##  5 KIA        11737
##  6 BMW         9850
##  7 TOYOTA      9752
##  8 HYUNDAI     7624
##  9 RIVIAN      6983
## 10 JEEP        6168
## # ℹ 36 more rows
…
